{
    "pagination": {
        "last_visible_page": 3,
        "has_next_page": true,
        "current_page": 2,
        "items": {
            "count": 2,
            "total": 6,
            "per_page": 2
        }
    },
    "data": [
        {
            "mal_id": 9253,
            "url": "https:\/\/myanimelist.net\/anime\/9253\/Steins_Gate",
            "images": {
                "jpg": {
                    "image_url": "https:\/\/cdn.myanimelist.net\/images\/anime\/5\/73199.jpg",
                    "small_image_url": "https:\/\/cdn.myanimelist.net\/images\/anime\/5\/73199t.jpg",
                    "large_image_url": "https:\/\/cdn.myanimelist.net\/images\/anime\/5\/73199l.jpg"
                },
                "webp": {
                    "image_url": "https:\/\/cdn.myanimelist.net\/images\/anime\/5\/73199.webp",
                    "small_image_url": "https:\/\/cdn.myanimelist.net\/images\/anime\/5\/73199t.webp",
                    "large_image_url": "https:\/\/cdn.myanimelist.net\/images\/anime\/5\/73199l.webp"
                }
            },
            "trailer": {
                "youtube_id": "27OZc-ku6is",
                "url": "https:\/\/www.youtube.com\/watch?v=27OZc-ku6is",
                "embed_url": "https:\/\/www.youtube.com\/embed\/27OZc-ku6is?enablejsapi=1&wmode=opaque&autoplay=1",
                "images": {
                    "image_url": "https:\/\/img.youtube.com\/vi\/27OZc-ku6is\/default.jpg",
                    "small_image_url": "https:\/\/img.youtube.com\/vi\/27OZc-ku6is\/sddefault.jpg",
                    "medium_image_url": "https:\/\/img.youtube.com\/vi\/27OZc-ku6is\/mqdefault.jpg",
                    "large_image_url": "https:\/\/img.youtube.com\/vi\/27OZc-ku6is\/hqdefault.jpg",
                    "maximum_image_url": "https:\/\/img.youtube.com\/vi\/27OZc-ku6is\/maxresdefault.jpg"
                }
            },
            "title": "Steins;Gate",
            "title_english": "Steins;Gate",
            "title_japanese": "STEINS;GATE",
            "title_synonyms": [],
            "type": "TV",
            "source": "Visual novel",
            "episodes": 24,
            "status": "Finished Airing",
            "airing": false,
            "aired": {
                "from": "2011-04-06T00:00:00+00:00",
                "to": "2011-09-14T00:00:00+00:00",
                "prop": {
                    "from": {
                        "day": 6,
                        "month": 4,
                        "year": 2011
                    },
                    "to": {
                        "day": 14,
                        "month": 9,
                        "year": 2011
                    }
                },
                "string": "Apr 6, 2011 to Sep 14, 2011"
            },
            "duration": "24 min per ep",
            "rating": "PG-13 - Teens 13 or older",
            "score": 9.09,
            "scored_by": 1216386,
            "rank": 3,
            "popularity": 13,
            "members": 2203471,
            "favorites": 168277,
            "synopsis": "The self-proclaimed mad scientist Rintarou Okabe rents out a room in a rickety old building in Akihabara, where he indulges himself in his hobby of inventing prospective \"future gadgets\" with fellow lab members: Mayuri Shiina, his air-headed childhood friend, and Hashida Itaru, a perverted hacker nicknamed \"Daru.\" The three pass the time by tinkering with their most promising contraption yet, a machine dubbed the \"Phone Microwave,\" which performs the strange function of morphing bananas into piles of green gel. Though miraculous in itself, the phenomenon doesn't provide anything concrete in Okabe's search for a scientific breakthrough; that is, until the lab members are spurred into action by a string of mysterious happenings before stumbling upon an unexpected success\u2014the Phone Microwave can send emails to the past, altering the flow of history. Adapted from the critically acclaimed visual novel by 5pb. and Nitroplus, Steins;Gate takes Okabe through the depths of scientific theory and practicality. Forced across the diverging threads of past and present, Okabe must shoulder the burdens that come with holding the key to the realm of time. [Written by MAL Rewrite]",
            "background": "Steins;Gate is based on 5pb. and Nitroplus' released in 2009.",
            "season": "spring",
            "year": 2011,
            "broadcast": {
                "day": "Wednesdays",
                "time": "02:05",
                "timezone": "Asia\/Tokyo",
                "string": "Wednesdays at 02:05 (JST)"
            },
            "producers": [
                {
                    "mal_id": 61,
                    "type": "anime",
                    "name": "Frontier Works",
                    "url": "https:\/\/myanimelist.net\/anime\/producer\/61\/Frontier_Works"
                },
                {
                    "mal_id": 108,
                    "type": "anime",
                    "name": "Media Factory",
                    "url": "https:\/\/myanimelist.net\/anime\/producer\/108\/Media_Factory"
                },
                {
                    "mal_id": 166,
                    "type": "anime",
                    "name": "Movic",
                    "url": "https:\/\/myanimelist.net\/anime\/producer\/166\/Movic"
                },
                {
                    "mal_id": 238,
                    "type": "anime",
                    "name": "AT-X",
                    "url": "https:\/\/myanimelist.net\/anime\/producer\/238\/AT-X"
                },
                {
                    "mal_id": 352,
                    "type": "anime",
                    "name": "Kadokawa Pictures Japan",
                    "url": "https:\/\/myanimelist.net\/anime\/producer\/352\/Kadokawa_Pictures_Japan"
                },
                {
                    "mal_id": 459,
                    "type": "anime",
                    "name": "Nitroplus",
                    "url": "https:\/\/myanimelist.net\/anime\/producer\/459\/Nitroplus"
                }
            ],
            "licensors": [
                {
                    "mal_id": 102,
                    "type": "anime",
                    "name": "Funimation",
                    "url": "https:\/\/myanimelist.net\/anime\/producer\/102\/Funimation"
                }
            ],
            "studios": [
                {
                    "mal_id": 314,
                    "type": "anime",
                    "name": "White Fox",
                    "url": "https:\/\/myanimelist.net\/anime\/producer\/314\/White_Fox"
                }
            ],
            "genres": [
                {
                    "mal_id": 8,
                    "type": "anime",
                    "name": "Drama",
                    "url": "https:\/\/myanimelist.net\/anime\/genre\/8\/Drama"
                },
                {
                    "mal_id": 24,
                    "type": "anime",
                    "name": "Sci-Fi",
                    "url": "https:\/\/myanimelist.net\/anime\/genre\/24\/Sci-Fi"
                },
                {
                    "mal_id": 41,
                    "type": "anime",
                    "name": "Suspense",
                    "url": "https:\/\/myanimelist.net\/anime\/genre\/41\/Suspense"
                }
            ],
            "explicit_genres": [],
            "themes": [
                {
                    "mal_id": 40,
                    "type": "anime",
                    "name": "Psychological",
                    "url": "https:\/\/myanimelist.net\/anime\/genre\/40\/Psychological"
                },
                {
                    "mal_id": 78,
                    "type": "anime",
                    "name": "Time Travel",
                    "url": "https:\/\/myanimelist.net\/anime\/genre\/78\/Time_Travel"
                }
            ],
            "demographics": []
        },
        {
            "mal_id": 38524,
            "url": "https:\/\/myanimelist.net\/anime\/38524\/Shingeki_no_Kyojin_Season_3_Part_2",
            "images": {
                "jpg": {
                    "image_url": "https:\/\/cdn.myanimelist.net\/images\/anime\/1517\/100633.jpg",
                    "small_image_url": "https:\/\/cdn.myanimelist.net\/images\/anime\/1517\/100633t.jpg",
                    "large_image_url": "https:\/\/cdn.myanimelist.net\/images\/anime\/1517\/100633l.jpg"
                },
                "webp": {
                    "image_url": "https:\/\/cdn.myanimelist.net\/images\/anime\/1517\/100633.webp",
                    "small_image_url": "https:\/\/cdn.myanimelist.net\/images\/anime\/1517\/100633t.webp",
                    "large_image_url": "https:\/\/cdn.myanimelist.net\/images\/anime\/1517\/100633l.webp"
                }
            },
            "trailer": {
                "youtube_id": "hKHepjfj5Tw",
                "url": "https:\/\/www.youtube.com\/watch?v=hKHepjfj5Tw",
                "embed_url": "https:\/\/www.youtube.com\/embed\/hKHepjfj5Tw?enablejsapi=1&wmode=opaque&autoplay=1",
                "images": {
                    "image_url": "https:\/\/img.youtube.com\/vi\/hKHepjfj5Tw\/default.jpg",
                    "small_image_url": "https:\/\/img.youtube.com\/vi\/hKHepjfj5Tw\/sddefault.jpg",
                    "medium_image_url": "https:\/\/img.youtube.com\/vi\/hKHepjfj5Tw\/mqdefault.jpg",
                    "large_image_url": "https:\/\/img.youtube.com\/vi\/hKHepjfj5Tw\/hqdefault.jpg",
                    "maximum_image_url": "https:\/\/img.youtube.com\/vi\/hKHepjfj5Tw\/maxresdefault.jpg"
                }
            },
            "title": "Shingeki no Kyojin Season 3 Part 2",
            "title_english": "Attack on Titan Season 3 Part 2",
            "title_japanese": "\u9032\u6483\u306e\u5de8\u4eba Season3 Part.2",
            "title_synonyms": [],
            "type": "TV",
            "source": "Manga",
            "episodes": 10,
            "status": "Finished Airing",
            "airing": false,
            "aired": {
                "from": "2019-04-29T00:00:00+00:00",
                "to": "2019-07-01T00:00:00+00:00",
                "prop": {
                    "from": {
                        "day": 29,
                        "month": 4,
                        "year": 2019
                    },
                    "to": {
                        "day": 1,
                        "month": 7,
                        "year": 2019
                    }
                },
                "string": "Apr 29, 2019 to Jul 1, 2019"
            },
            "duration": "23 min per ep",
            "rating": "R - 17+ (violence & profanity)",
            "score": 9.08,
            "scored_by": 1261129,
            "rank": 4,
            "popularity": 32,
            "members": 1787291,
            "favorites": 49851,
            "synopsis": "Seeking to restore humanity's diminishing hope, the Survey Corps embark on a mission to retake Wall Maria, where the battle against the merciless \"Titans\" takes the stage once again. Returning to the tattered Shiganshina District that was once his home, Eren Yeager and the Corps find the town oddly unoccupied by Titans. Even after the outer gate is plugged, they strangely encounter no opposition. The mission progresses smoothly until Armin Arlert, highly suspicious of the enemy's absence, discovers distressing signs of a potential scheme against them. Shingeki no Kyojin Season 3 Part 2 follows Eren as he vows to take back everything that was once his. Alongside him, the Survey Corps strive\u2014through countless sacrifices\u2014to carve a path towards victory and uncover the secrets locked away in the Yeager family's basement. [Written by MAL Rewrite]",
            "background": "Shingeki no Kyojin adapts content from volumes 18-22 of Hajime Isayama's award-winning manga of the same name.",
            "season": "spring",
            "year": 2019,
            "broadcast": {
                "day": "Mondays",
                "time": "00:10",
                "timezone": "Asia\/Tokyo",
                "string": "Mondays at 00:10 (JST)"
            },
            "producers": [
                {
                    "mal_id": 10,
                    "type": "anime",
                    "name": "Production I.G",
                    "url": "https:\/\/myanimelist.net\/anime\/producer\/10\/Production_IG"
                },
                {
                    "mal_id": 53,
                    "type": "anime",
                    "name": "Dentsu",
                    "url": "https:\/\/myanimelist.net\/anime\/producer\/53\/Dentsu"
                },
                {
                    "mal_id": 143,
                    "type": "anime",
                    "name": "Mainichi Broadcasting System",
                    "url": "https:\/\/myanimelist.net\/anime\/producer\/143\/Mainichi_Broadcasting_System"
                },
                {
                    "mal_id": 144,
                    "type": "anime",
                    "name": "Pony Canyon",
                    "url": "https:\/\/myanimelist.net\/anime\/producer\/144\/Pony_Canyon"
                },
                {
                    "mal_id": 159,
                    "type": "anime",
                    "name": "Kodansha",
                    "url": "https:\/\/myanimelist.net\/anime\/producer\/159\/Kodansha"
                },
                {
                    "mal_id": 1499,
                    "type": "anime",
                    "name": "Techno Sound",
                    "url": "https:\/\/myanimelist.net\/anime\/producer\/1499\/Techno_Sound"
                },
                {
                    "mal_id": 1557,
                    "type": "anime",
                    "name": "Pony Canyon Enterprise",
                    "url": "https:\/\/myanimelist.net\/anime\/producer\/1557\/Pony_Canyon_Enterprise"
                }
            ],
            "licensors": [
                {
                    "mal_id": 102,
                    "type": "anime",
                    "name": "Funimation",
                    "url": "https:\/\/myanimelist.net\/anime\/producer\/102\/Funimation"
                }
            ],
            "studios": [
                {
                    "mal_id": 858,
                    "type": "anime",
                    "name": "Wit Studio",
                    "url": "https:\/\/myanimelist.net\/anime\/producer\/858\/Wit_Studio"
                }
            ],
            "genres": [
                {
                    "mal_id": 1,
                    "type": "anime",
                    "name": "Action",
                    "url": "https:\/\/myanimelist.net\/anime\/genre\/1\/Action"
                },
                {
                    "mal_id": 8,
                    "type": "anime",
                    "name": "Drama",
                    "url": "https:\/\/myanimelist.net\/anime\/genre\/8\/Drama"
                }
            ],
            "explicit_genres": [],
            "themes": [
                {
                    "mal_id": 58,
                    "type": "anime",
                    "name": "Gore",
                    "url": "https:\/\/myanimelist.net\/anime\/genre\/58\/Gore"
                },
                {
                    "mal_id": 38,
                    "type": "anime",
                    "name": "Military",
                    "url": "https:\/\/myanimelist.net\/anime\/genre\/38\/Military"
                },
                {
                    "mal_id": 76,
                    "type": "anime",
                    "name": "Survival",
                    "url": "https:\/\/myanimelist.net\/anime\/genre\/76\/Survival"
                }
            ],
            "demographics": [
                {
                    "mal_id": 27,
                    "type": "anime",
                    "name": "Shounen",
                    "url": "https:\/\/myanimelist.net\/anime\/genre\/27\/Shounen"
                }
            ]
        }
    ]
}

