{
    "pagination": {
        "last_visible_page": 3,
        "has_next_page": true,
        "current_page": 1,
        "items": {
            "count": 2,
            "total": 6,
            "per_page": 2
        }
    },
    "data": [
        {
            "mal_id": 5114,
            "url": "https:\/\/myanimelist.net\/anime\/5114\/Fullmetal_Alchemist__Brotherhood",
            "images": {
                "jpg": {
                    "image_url": "https:\/\/cdn.myanimelist.net\/images\/anime\/1223\/96541.jpg",
                    "small_image_url": "https:\/\/cdn.myanimelist.net\/images\/anime\/1223\/96541t.jpg",
                    "large_image_url": "https:\/\/cdn.myanimelist.net\/images\/anime\/1223\/96541l.jpg"
                },
                "webp": {
                    "image_url": "https:\/\/cdn.myanimelist.net\/images\/anime\/1223\/96541.webp",
                    "small_image_url": "https:\/\/cdn.myanimelist.net\/images\/anime\/1223\/96541t.webp",
                    "large_image_url": "https:\/\/cdn.myanimelist.net\/images\/anime\/1223\/96541l.webp"
                }
            },
            "trailer": {
                "youtube_id": "--IcmZkvL0Q",
                "url": "https:\/\/www.youtube.com\/watch?v=--IcmZkvL0Q",
                "embed_url": "https:\/\/www.youtube.com\/embed\/--IcmZkvL0Q?enablejsapi=1&wmode=opaque&autoplay=1",
                "images": {
                    "image_url": "https:\/\/img.youtube.com\/vi\/--IcmZkvL0Q\/default.jpg",
                    "small_image_url": "https:\/\/img.youtube.com\/vi\/--IcmZkvL0Q\/sddefault.jpg",
                    "medium_image_url": "https:\/\/img.youtube.com\/vi\/--IcmZkvL0Q\/mqdefault.jpg",
                    "large_image_url": "https:\/\/img.youtube.com\/vi\/--IcmZkvL0Q\/hqdefault.jpg",
                    "maximum_image_url": "https:\/\/img.youtube.com\/vi\/--IcmZkvL0Q\/maxresdefault.jpg"
                }
            },
            "title": "Fullmetal Alchemist: Brotherhood",
            "title_english": "Fullmetal Alchemist: Brotherhood",
            "title_japanese": "\u92fc\u306e\u932c\u91d1\u8853\u5e2b FULLMETAL ALCHEMIST",
            "title_synonyms": [
                "Hagane no Renkinjutsushi: Fullmetal Alchemist",
                "Fullmetal Alchemist (2009)",
                "FMA",
                "FMAB"
            ],
            "type": "TV",
            "source": "Manga",
            "episodes": 64,
            "status": "Finished Airing",
            "airing": false,
            "aired": {
                "from": "2009-04-05T00:00:00+00:00",
                "to": "2010-07-04T00:00:00+00:00",
                "prop": {
                    "from": {
                        "day": 5,
                        "month": 4,
                        "year": 2009
                    },
                    "to": {
                        "day": 4,
                        "month": 7,
                        "year": 2010
                    }
                },
                "string": "Apr 5, 2009 to Jul 4, 2010"
            },
            "duration": "24 min per ep",
            "rating": "R - 17+ (violence & profanity)",
            "score": 9.14,
            "scored_by": 1809899,
            "rank": 1,
            "popularity": 3,
            "members": 2838518,
            "favorites": 198884,
            "synopsis": "After a horrific alchemy experiment goes wrong in the Elric household, brothers Edward and Alphonse are left in a catastrophic new reality. Ignoring the alchemical principle banning human transmutation, the boys attempted to bring their recently deceased mother back to life. Instead, they suffered brutal personal loss: Alphonse's body disintegrated while Edward lost a leg and then sacrificed an arm to keep Alphonse's soul in the physical realm by binding it to a hulking suit of armor. The brothers are rescued by their neighbor Pinako Rockbell and her granddaughter Winry. Known as a bio-mechanical engineering prodigy, Winry creates prosthetic limbs for Edward by utilizing \"automail,\" a tough, versatile metal used in robots and combat armor. After years of training, the Elric brothers set off on a quest to restore their bodies by locating the Philosopher's Stone\u2014a powerful gem that allows an alchemist to defy the traditional laws of Equivalent Exchange. As Edward becomes an infamous alchemist and gains the nickname \"Fullmetal,\" the boys' journey embroils them in a growing conspiracy that threatens the fate of the world. [Written by MAL Rewrite]",
            "background": null,
            "season": "spring",
            "year": 2009,
            "broadcast": {
                "day": "Sundays",
                "time": "17:00",
                "timezone": "Asia\/Tokyo",
                "string": "Sundays at 17:00 (JST)"
            },
            "producers": [
                {
                    "mal_id": 17,
                    "type": "anime",
                    "name": "Aniplex",
                    "url": "https:\/\/myanimelist.net\/anime\/producer\/17\/Aniplex"
                },
                {
                    "mal_id": 58,
                    "type": "anime",
                    "name": "Square Enix",
                    "url": "https:\/\/myanimelist.net\/anime\/producer\/58\/Square_Enix"
                },
                {
                    "mal_id": 143,
                    "type": "anime",
                    "name": "Mainichi Broadcasting System",
                    "url": "https:\/\/myanimelist.net\/anime\/producer\/143\/Mainichi_Broadcasting_System"
                },
                {
                    "mal_id": 1155,
                    "type": "anime",
                    "name": "Studio Moriken",
                    "url": "https:\/\/myanimelist.net\/anime\/producer\/1155\/Studio_Moriken"
                }
            ],
            "licensors": [
                {
                    "mal_id": 102,
                    "type": "anime",
                    "name": "Funimation",
                    "url": "https:\/\/myanimelist.net\/anime\/producer\/102\/Funimation"
                },
                {
                    "mal_id": 493,
                    "type": "anime",
                    "name": "Aniplex of America",
                    "url": "https:\/\/myanimelist.net\/anime\/producer\/493\/Aniplex_of_America"
                }
            ],
            "studios": [
                {
                    "mal_id": 4,
                    "type": "anime",
                    "name": "Bones",
                    "url": "https:\/\/myanimelist.net\/anime\/producer\/4\/Bones"
                }
            ],
            "genres": [
                {
                    "mal_id": 1,
                    "type": "anime",
                    "name": "Action",
                    "url": "https:\/\/myanimelist.net\/anime\/genre\/1\/Action"
                },
                {
                    "mal_id": 2,
                    "type": "anime",
                    "name": "Adventure",
                    "url": "https:\/\/myanimelist.net\/anime\/genre\/2\/Adventure"
                },
                {
                    "mal_id": 8,
                    "type": "anime",
                    "name": "Drama",
                    "url": "https:\/\/myanimelist.net\/anime\/genre\/8\/Drama"
                },
                {
                    "mal_id": 10,
                    "type": "anime",
                    "name": "Fantasy",
                    "url": "https:\/\/myanimelist.net\/anime\/genre\/10\/Fantasy"
                }
            ],
            "explicit_genres": [],
            "themes": [
                {
                    "mal_id": 38,
                    "type": "anime",
                    "name": "Military",
                    "url": "https:\/\/myanimelist.net\/anime\/genre\/38\/Military"
                }
            ],
            "demographics": [
                {
                    "mal_id": 27,
                    "type": "anime",
                    "name": "Shounen",
                    "url": "https:\/\/myanimelist.net\/anime\/genre\/27\/Shounen"
                }
            ]
        },
        {
            "mal_id": 28977,
            "url": "https:\/\/myanimelist.net\/anime\/28977\/Gintama\u00b0",
            "images": {
                "jpg": {
                    "image_url": "https:\/\/cdn.myanimelist.net\/images\/anime\/3\/72078.jpg",
                    "small_image_url": "https:\/\/cdn.myanimelist.net\/images\/anime\/3\/72078t.jpg",
                    "large_image_url": "https:\/\/cdn.myanimelist.net\/images\/anime\/3\/72078l.jpg"
                },
                "webp": {
                    "image_url": "https:\/\/cdn.myanimelist.net\/images\/anime\/3\/72078.webp",
                    "small_image_url": "https:\/\/cdn.myanimelist.net\/images\/anime\/3\/72078t.webp",
                    "large_image_url": "https:\/\/cdn.myanimelist.net\/images\/anime\/3\/72078l.webp"
                }
            },
            "trailer": {
                "youtube_id": null,
                "url": null,
                "embed_url": null,
                "images": {
                    "image_url": null,
                    "small_image_url": null,
                    "medium_image_url": null,
                    "large_image_url": null,
                    "maximum_image_url": null
                }
            },
            "title": "Gintama\u00b0",
            "title_english": "Gintama Season 4",
            "title_japanese": "\u9280\u9b42\u00b0",
            "title_synonyms": [
                "Gintama' (2015)"
            ],
            "type": "TV",
            "source": "Manga",
            "episodes": 51,
            "status": "Finished Airing",
            "airing": false,
            "aired": {
                "from": "2015-04-08T00:00:00+00:00",
                "to": "2016-03-30T00:00:00+00:00",
                "prop": {
                    "from": {
                        "day": 8,
                        "month": 4,
                        "year": 2015
                    },
                    "to": {
                        "day": 30,
                        "month": 3,
                        "year": 2016
                    }
                },
                "string": "Apr 8, 2015 to Mar 30, 2016"
            },
            "duration": "24 min per ep",
            "rating": "PG-13 - Teens 13 or older",
            "score": 9.09,
            "scored_by": 209127,
            "rank": 2,
            "popularity": 336,
            "members": 523200,
            "favorites": 13907,
            "synopsis": "Gintoki, Shinpachi, and Kagura return as the fun-loving but broke members of the Yorozuya team! Living in an alternate-reality Edo, where swords are prohibited and alien overlords have conquered Japan, they try to thrive on doing whatever work they can get their hands on. However, Shinpachi and Kagura still haven't been paid... Does Gin-chan really spend all that cash playing pachinko? Meanwhile, when Gintoki drunkenly staggers home one night, an alien spaceship crashes nearby. A fatally injured crew member emerges from the ship and gives Gintoki a strange, clock-shaped device, warning him that it is incredibly powerful and must be safeguarded. Mistaking it for his alarm clock, Gintoki proceeds to smash the device the next morning and suddenly discovers that the world outside his apartment has come to a standstill. With Kagura and Shinpachi at his side, he sets off to get the device fixed; though, as usual, nothing is ever that simple for the Yorozuya team. Filled with tongue-in-cheek humor and moments of heartfelt emotion, Gintama's fourth season finds Gintoki and his friends facing both their most hilarious misadventures and most dangerous crises yet. [Written by MAL Rewrite]",
            "background": "This is a fourth season of Gintama. In the episode continuity corresponds to episodes 266-316 of Gintama.",
            "season": "spring",
            "year": 2015,
            "broadcast": {
                "day": "Wednesdays",
                "time": "18:00",
                "timezone": "Asia\/Tokyo",
                "string": "Wednesdays at 18:00 (JST)"
            },
            "producers": [
                {
                    "mal_id": 16,
                    "type": "anime",
                    "name": "TV Tokyo",
                    "url": "https:\/\/myanimelist.net\/anime\/producer\/16\/TV_Tokyo"
                },
                {
                    "mal_id": 17,
                    "type": "anime",
                    "name": "Aniplex",
                    "url": "https:\/\/myanimelist.net\/anime\/producer\/17\/Aniplex"
                },
                {
                    "mal_id": 53,
                    "type": "anime",
                    "name": "Dentsu",
                    "url": "https:\/\/myanimelist.net\/anime\/producer\/53\/Dentsu"
                }
            ],
            "licensors": [
                {
                    "mal_id": 102,
                    "type": "anime",
                    "name": "Funimation",
                    "url": "https:\/\/myanimelist.net\/anime\/producer\/102\/Funimation"
                },
                {
                    "mal_id": 1468,
                    "type": "anime",
                    "name": "Crunchyroll",
                    "url": "https:\/\/myanimelist.net\/anime\/producer\/1468\/Crunchyroll"
                }
            ],
            "studios": [
                {
                    "mal_id": 1258,
                    "type": "anime",
                    "name": "Bandai Namco Pictures",
                    "url": "https:\/\/myanimelist.net\/anime\/producer\/1258\/Bandai_Namco_Pictures"
                }
            ],
            "genres": [
                {
                    "mal_id": 1,
                    "type": "anime",
                    "name": "Action",
                    "url": "https:\/\/myanimelist.net\/anime\/genre\/1\/Action"
                },
                {
                    "mal_id": 4,
                    "type": "anime",
                    "name": "Comedy",
                    "url": "https:\/\/myanimelist.net\/anime\/genre\/4\/Comedy"
                },
                {
                    "mal_id": 24,
                    "type": "anime",
                    "name": "Sci-Fi",
                    "url": "https:\/\/myanimelist.net\/anime\/genre\/24\/Sci-Fi"
                }
            ],
            "explicit_genres": [],
            "themes": [
                {
                    "mal_id": 57,
                    "type": "anime",
                    "name": "Gag Humor",
                    "url": "https:\/\/myanimelist.net\/anime\/genre\/57\/Gag_Humor"
                },
                {
                    "mal_id": 13,
                    "type": "anime",
                    "name": "Historical",
                    "url": "https:\/\/myanimelist.net\/anime\/genre\/13\/Historical"
                },
                {
                    "mal_id": 20,
                    "type": "anime",
                    "name": "Parody",
                    "url": "https:\/\/myanimelist.net\/anime\/genre\/20\/Parody"
                },
                {
                    "mal_id": 21,
                    "type": "anime",
                    "name": "Samurai",
                    "url": "https:\/\/myanimelist.net\/anime\/genre\/21\/Samurai"
                }
            ],
            "demographics": [
                {
                    "mal_id": 27,
                    "type": "anime",
                    "name": "Shounen",
                    "url": "https:\/\/myanimelist.net\/anime\/genre\/27\/Shounen"
                }
            ]
        }
    ]
}
